<svg xmlns="http://www.w3.org/2000/svg" width="33.921" height="30" viewBox="0 0 33.921 30">
  <path id="Union_5" data-name="Union 5" d="M12.723,29.4a2.061,2.061,0,0,1,0-2.909l4.052-4.052a1.092,1.092,0,0,1,1.07-.278L18.9,21.1a8.166,8.166,0,0,1-1.449-4.668v-.023h-8.3V18.2a1.874,1.874,0,1,1-3.748,0v-1.81A5.839,5.839,0,0,1,.994,13.829V23.853A2.452,2.452,0,0,0,3.443,26.3h7.19a.5.5,0,0,1,0,.994H3.443A3.447,3.447,0,0,1,0,23.853V8.525A3.448,3.448,0,0,1,3.443,5.081H9.483V3.352A3.355,3.355,0,0,1,12.834,0H18.49a3.354,3.354,0,0,1,3.35,3.352v1.73h6.041a3.448,3.448,0,0,1,3.443,3.444v1.91c.063.058.123.117.184.177a8.228,8.228,0,0,1,0,11.644c-.06.06-.121.12-.184.177v1.419A3.447,3.447,0,0,1,27.881,27.3H20.032a.5.5,0,0,1,0-.994h7.849a2.453,2.453,0,0,0,2.45-2.45v-.619a8.254,8.254,0,0,1-9.312-.015l-1.056,1.056a1.092,1.092,0,0,1-.278,1.07L15.633,29.4a2.058,2.058,0,0,1-2.91,0Zm.7-2.207a1.063,1.063,0,1,0,1.5,1.5l2.807-2.806-1.5-1.5Zm4.051-4.052-.541.543,1.5,1.5.543-.541a.1.1,0,0,0,0-.139l-1.366-1.365h0a.1.1,0,0,0-.069-.028A.1.1,0,0,0,17.478,23.138Zm3.088-11.823a7.237,7.237,0,1,0,5.12-2.122A7.194,7.194,0,0,0,20.566,11.315ZM18.647,22.764l.71.71.873-.872c-.125-.111-.247-.225-.367-.345s-.234-.24-.345-.367ZM6.394,18.2a.88.88,0,0,0,1.761,0v-.534H6.394Zm0-3.2v1.673H8.155V15a.88.88,0,0,0-1.761,0Zm2.753,0v.414h8.366A8.237,8.237,0,0,1,30.331,9.634V8.525a2.453,2.453,0,0,0-2.45-2.45H3.443A2.452,2.452,0,0,0,.994,8.525v2.049A4.849,4.849,0,0,0,5.4,15.4V15a1.874,1.874,0,1,1,3.748,0ZM18.49,2.054a1.3,1.3,0,0,1,1.3,1.3v1.73h1.061V3.352A2.36,2.36,0,0,0,18.49.994H12.834a2.359,2.359,0,0,0-2.356,2.357v1.73h1.06V3.352a1.3,1.3,0,0,1,1.3-1.3Zm-5.958,1.3v1.73h6.262V3.352a.3.3,0,0,0-.3-.3H12.834A.3.3,0,0,0,12.531,3.352Zm8.934,17.3a5.967,5.967,0,1,1,10.051-5.5.5.5,0,0,1-.971.211,4.976,4.976,0,1,0,0,2.127.5.5,0,0,1,.971.211,5.97,5.97,0,0,1-10.051,2.946Z" fill="#be955a"/>
</svg>
