<svg xmlns="http://www.w3.org/2000/svg" width="213.278" height="213.278" viewBox="0 0 213.278 213.278">
  <g id="Group_249" data-name="Group 249" transform="translate(0)">
    <g id="Ring_Chart13" data-name="Ring Chart13" transform="translate(213.278 213.278) rotate(180)">
      <path id="Path_171" data-name="Path 171" d="M42.368,0A106.675,106.675,0,1,1,0,205.53l8.4-19.516A85.444,85.444,0,1,0,42.369,21.243Z" transform="translate(66.49 0)" fill="#003671"/>
      <path id="Path_172" data-name="Path 172" d="M59.984,79.286A106.233,106.233,0,0,1,0,3.729L20.828,0A85.08,85.08,0,0,0,68.339,59.846Z" transform="translate(2.112 124.386)" fill="#6a97c8"/>
      <path id="Path_173" data-name="Path 173" d="M1.268,82.242A106.233,106.233,0,0,1,22.894,0l16.3,13.492A85.08,85.08,0,0,0,22.1,78.513Z" transform="translate(0 40.586)" fill="#abc0d8"/>
      <path id="Path_174" data-name="Path 174" d="M0,26.093A106.233,106.233,0,0,1,34.081,0l8.772,19.255A85.08,85.08,0,0,0,16.3,39.585Z" transform="translate(25.944 10.549)" fill="#be955a"/>
      <path id="Path_175" data-name="Path 175" d="M0,5.642A106.232,106.232,0,0,1,16.989,0l4.488,20.678A85.076,85.076,0,0,0,8.772,24.9Z" transform="translate(64.651 2.924)" fill="#e1c8a5"/>
      <path id="Path_176" data-name="Path 176" d="M0,1.91A106.234,106.234,0,0,1,17.8,0V21.159A85.08,85.08,0,0,0,4.488,22.587Z" transform="translate(86.4 0)" fill="#d8d3cc"/>
    </g>
  </g>
</svg>
