<svg xmlns="http://www.w3.org/2000/svg" width="24" height="26" viewBox="0 0 24 26">
  <text id="chevron-down" transform="translate(12 23)" fill="#be955a" font-size="26" font-family="FontAwesome5Pro-Light, 'Font Awesome 5 Pro'" font-weight="300"><tspan x="-11.375" y="0">chevron-down</tspan></text>
</svg>
