<svg id="brochure" xmlns="http://www.w3.org/2000/svg" width="27.911" height="30" viewBox="0 0 27.911 30">
  <g id="Group_167" data-name="Group 167" transform="translate(0 0)">
    <g id="Group_166" data-name="Group 166">
      <path id="Path_166" data-name="Path 166" d="M225.079,337.623h-11.2a.375.375,0,0,0,0,.75h11.2a.375.375,0,0,0,0-.75Z" transform="translate(-199.63 -317.753)" fill="#be955a"/>
      <path id="Path_167" data-name="Path 167" d="M225.079,378.638h-11.2a.375.375,0,1,0,0,.75h11.2a.375.375,0,0,0,0-.75Z" transform="translate(-199.63 -356.354)" fill="#be955a"/>
      <path id="Path_168" data-name="Path 168" d="M222.116,419.653h-8.234a.375.375,0,1,0,0,.75h8.234a.375.375,0,1,0,0-.75Z" transform="translate(-201.022 -394.271)" fill="#be955a"/>
      <path id="Path_169" data-name="Path 169" d="M45.607,7.187l-3.6-3.6a.44.44,0,0,0-.311-.129H36.725V1.544A1.546,1.546,0,0,0,35.181,0H19.369a1.546,1.546,0,0,0-1.544,1.544V25a1.546,1.546,0,0,0,1.544,1.544h5.847a.44.44,0,0,0,0-.879H19.369A.665.665,0,0,1,18.7,25V1.544a.666.666,0,0,1,.665-.665H33.914l-5.742,2.2a2.1,2.1,0,0,0-1.317,1.675,3.106,3.106,0,0,0-.02.5h-6.3a.777.777,0,0,0-.776.776V9.973a.777.777,0,0,0,.776.776h6.3v1.181h-6.3a.777.777,0,0,0-.776.776v3.938a.777.777,0,0,0,.776.776h6.3v1.327H20.194a.44.44,0,0,0,0,.879h6.641v1.358H20.194a.44.44,0,0,0,0,.879h6.641v6.593A1.546,1.546,0,0,0,28.379,30H44.192a1.546,1.546,0,0,0,1.544-1.544V7.5a.439.439,0,0,0-.129-.311ZM42.136,4.96l2.1,2.1H42.8a.666.666,0,0,1-.665-.665Zm-12.489-1.5L35.7,1.134a.661.661,0,0,1,.143.41V3.459ZM20.634,9.87V6.138h6.2V9.87Zm0,6.671V12.809h6.2V16.54Zm23.558,12.58H28.379a.666.666,0,0,1-.665-.665V5a.666.666,0,0,1,.665-.665H41.257V6.394A1.546,1.546,0,0,0,42.8,7.938h2.056V28.456A.666.666,0,0,1,44.192,29.121Z" transform="translate(-17.825 0)" fill="#be955a"/>
      <path id="Path_170" data-name="Path 170" d="M223.48,158.831h-7.412a.375.375,0,1,0,0,.75h7.412a.1.1,0,0,1,.1.1v5.072l-1.905-2.3a1.054,1.054,0,0,0-1.623,0l-.818.986-1.747-2.105a1.054,1.054,0,0,0-1.623,0l-2.847,3.43v-5.087a.1.1,0,0,1,.1-.1h1.192a.375.375,0,0,0,0-.75h-1.192a.853.853,0,0,0-.852.852v5.375a.853.853,0,0,0,.852.852H223.48a.853.853,0,0,0,.852-.852v-5.375A.853.853,0,0,0,223.48,158.831Zm-2.848,4.108a.3.3,0,0,1,.468,0l1.844,2.222h-4.155Zm-4.188-1.12a.3.3,0,0,1,.468,0l1.837,2.213-.936,1.128h-4.142Z" transform="translate(-198.455 -149.003)" fill="#be955a"/>
    </g>
  </g>
</svg>
